{
	"info": {
		"_postman_id": "5af42c02-d6af-4676-93e0-28d5b1d4a181",
		"name": "Library-Manager",
		"schema": "https://schema.getpostman.com/json/collection/v2.1.0/collection.json"
	},
	"item": [
		{
			"name": "add user",
			"request": {
				"auth": {
					"type": "bearer",
					"bearer": [
						{
							"key": "token",
							"value": "eyJ0eXBlIjoiSldUIiwiYWxnIjoiSFM1MTIifQ.eyJzdWIiOiJoYWZpeiIsImlhdCI6MTY0MzU0NDIwNSwiZXhwIjoxNjQzNjMwNjA1LCJST0xFIjpbIlVTRVIiXX0.R3Kc0bP30pR6kbGN4uJ7xxMmNwIsk0yfafBjYz5mXh7BQcU7m-sXwWkOGzwhN1m-wlkaKVqYc2ce1u27WEPvEQ",
							"type": "string"
						}
					]
				},
				"method": "POST",
				"header": [],
				"body": {
					"mode": "raw",
					"raw": "{\r\n    \"name\":\"Publihser1\",\r\n    \"email\":\"memmed68666gg@gmail.com\",\r\n    \"password\":\"salam\",\r\n    \"userType\":\"PUBLISHER\"\r\n}",
					"options": {
						"raw": {
							"language": "json"
						}
					}
				},
				"url": {
					"raw": "http://localhost:8080/user-management/V1.0/users",
					"protocol": "http",
					"host": [
						"localhost"
					],
					"port": "8080",
					"path": [
						"user-management",
						"V1.0",
						"users"
					]
				}
			},
			"response": []
		},
		{
			"name": "get books by pagination",
			"request": {
				"auth": {
					"type": "bearer",
					"bearer": [
						{
							"key": "token",
							"value": "eyJ0eXBlIjoiSldUIiwiYWxnIjoiSFM1MTIifQ.eyJzdWIiOiJoYWZpeiIsImlhdCI6MTY0MzU0NDIwNSwiZXhwIjoxNjQzNjMwNjA1LCJST0xFIjpbIkFETUlOIiwiU1RVREVOVCIsIk1BTkFHRVIiXX0.oF5XggyY3mUBbm7VUPW1bQWq-WA_YlHyQUWdb6Nb-OpjNHw7-76K-AxWyh-8h2MmOof4mnsxWdCtGVOKodtqpw",
							"type": "string"
						}
					]
				},
				"method": "GET",
				"header": [
					{
						"key": "",
						"value": "",
						"type": "text",
						"disabled": true
					}
				],
				"url": {
					"raw": "http://localhost:8080/book-management/V1.0/books",
					"protocol": "http",
					"host": [
						"localhost"
					],
					"port": "8080",
					"path": [
						"book-management",
						"V1.0",
						"books"
					]
				}
			},
			"response": []
		},
		{
			"name": "add book",
			"request": {
				"auth": {
					"type": "bearer",
					"bearer": [
						{
							"key": "token",
							"value": "eyJ0eXBlIjoiSldUIiwiYWxnIjoiSFM1MTIifQ.eyJzdWIiOiJoYWZpeiIsImlhdCI6MTY0MzU0NDIwNSwiZXhwIjoxNjQzNjMwNjA1LCJST0xFIjpbIkFETUlOIiwiU1RVREVOVCIsIk1BTkFHRVIiXX0.oF5XggyY3mUBbm7VUPW1bQWq-WA_YlHyQUWdb6Nb-OpjNHw7-76K-AxWyh-8h2MmOof4mnsxWdCtGVOKodtqpw",
							"type": "string"
						}
					]
				},
				"method": "POST",
				"header": [],
				"body": {
					"mode": "raw",
					"raw": "{\r\n    \"name\":\"Effective Java\",\r\n    \"publisherId\":3,\r\n    \"authorId\":3\r\n}",
					"options": {
						"raw": {
							"language": "json"
						}
					}
				},
				"url": {
					"raw": "http://localhost:8080/book-management/V1.0/books",
					"protocol": "http",
					"host": [
						"localhost"
					],
					"port": "8080",
					"path": [
						"book-management",
						"V1.0",
						"books"
					]
				}
			},
			"response": []
		},
		{
			"name": "get books by publisher",
			"request": {
				"method": "GET",
				"header": [],
				"url": {
					"raw": ""
				}
			},
			"response": []
		},
		{
			"name": "update book",
			"request": {
				"auth": {
					"type": "bearer",
					"bearer": [
						{
							"key": "token",
							"value": "eyJ0eXBlIjoiSldUIiwiYWxnIjoiSFM1MTIifQ.eyJzdWIiOiJtZW1tZWQ2OEBnbWFpbC5jb20iLCJpYXQiOjE2NDM1NjgwOTIsImV4cCI6MTY0MzY1NDQ5MiwiZW1haWwiOiJtZW1tZWQ2OEBnbWFpbC5jb20iLCJwYXNzd29yZCI6InNhbGFtIiwiUk9MRSI6WyJBRE1JTiIsIlVTRVIiLCJNQU5BR0VSIl19.lGGgaE79Lt_HacvEbfH4L64sTFQqVM8h1nVgLgyKCxeMC0NZDqvAH1_iX9sVc7ZhX7xbhPMtKcrIgrbxkyt0xA",
							"type": "string"
						}
					]
				},
				"method": "PUT",
				"header": [],
				"body": {
					"mode": "raw",
					"raw": "{\r\n    \"name\":\"Effective Java rrrr\",\r\n    \"description\":\"Hello\",\r\n    \"publisherId\":4,\r\n    \"authorId\":3\r\n}",
					"options": {
						"raw": {
							"language": "json"
						}
					}
				},
				"url": {
					"raw": "http://localhost:8080/book-management/V1.0/books/1",
					"protocol": "http",
					"host": [
						"localhost"
					],
					"port": "8080",
					"path": [
						"book-management",
						"V1.0",
						"books",
						"1"
					]
				}
			},
			"response": []
		},
		{
			"name": "login",
			"request": {
				"auth": {
					"type": "bearer",
					"bearer": [
						{
							"key": "token",
							"value": "eyJ0eXBlIjoiSldUIiwiYWxnIjoiSFM1MTIifQ.eyJzdWIiOiJtZW1tZWQ2OEBnbWFpbC5jb20iLCJpYXQiOjE2NDM2MTM3MDYsImV4cCI6MTY0MzcwMDEwNiwiUk9MRSI6WyJVU0VSIiwiUFVCTElTSEVSIl19.Y4TvEFPuTd59W1L7j7I3K_lrc4aFAJM0iZ0aSqSizYbBblHd84h4me0IPR880MkfkF6KdQF2jPgtCYBG7J88TQ",
							"type": "string"
						}
					]
				},
				"method": "POST",
				"header": [],
				"body": {
					"mode": "raw",
					"raw": "{\r\n    \"email\":\"memmed68@gmail.com\",\r\n    \"password\":\"salam\"\r\n}",
					"options": {
						"raw": {
							"language": "json"
						}
					}
				},
				"url": {
					"raw": "http://localhost:8080/user-management/V1.0/users/sign-in",
					"protocol": "http",
					"host": [
						"localhost"
					],
					"port": "8080",
					"path": [
						"user-management",
						"V1.0",
						"users",
						"sign-in"
					]
				}
			},
			"response": []
		}
	]
}